<?xml version="1.0" encoding="utf-8"?>
<!-- Generator: Adobe Illustrator 24.1.3, SVG Export Plug-In . SVG Version: 6.00 Build 0)  -->
<svg version="1.1" id="Layer_1" xmlns="http://www.w3.org/2000/svg" xmlns:xlink="http://www.w3.org/1999/xlink" x="0px" y="0px"
	 width="50px" height="50px" viewBox="0 0 50 50" style="enable-background:new 0 0 50 50;" xml:space="preserve">
<style type="text/css">
	.st0{display:none;}
	.st1{fill:#5B9A89;}
</style>
<g id="guides">
</g>
<g id="builders" class="st0">
</g>
<g>
	<path class="st1" d="M31.7,41.8c-3,1.6-6,2.2-9.6,2.2c-8.8,0-16.3-6.5-16.3-16.8c0-11.1,7.7-20.7,19.6-20.7
		c9.4,0,15.7,6.6,15.7,15.6c0,8.1-4.5,12.8-9.6,12.8c-2.2,0-4.1-1.5-4-4.7h-0.2c-1.9,3.2-4.4,4.7-7.6,4.7c-3.1,0-5.8-2.5-5.8-6.8
		c0-6.7,5.3-12.8,12.8-12.8c2.3,0,4.4,0.5,5.8,1.1l-1.8,9.7c-0.8,4.1-0.2,6,1.6,6c2.7,0.1,5.8-3.6,5.8-9.8c0-7.8-4.7-13.4-13-13.4
		C16.3,9,8.9,16,8.9,26.9c0,9,5.9,14.5,13.8,14.5c3.1,0,5.9-0.6,8.1-1.9L31.7,41.8z M28.8,18.6c-0.5-0.2-1.5-0.4-2.7-0.4
		c-4.7,0-8.6,4.5-8.6,9.7c0,2.4,1.2,4.1,3.6,4.1c3.1,0,6-4,6.6-7.3L28.8,18.6z"/>
</g>
</svg>
