<?xml version="1.0" encoding="utf-8"?>
<!-- Generator: Adobe Illustrator 24.1.3, SVG Export Plug-In . SVG Version: 6.00 Build 0)  -->
<svg version="1.1" id="Layer_1" xmlns="http://www.w3.org/2000/svg" xmlns:xlink="http://www.w3.org/1999/xlink" x="0px" y="0px"
	 width="50px" height="50px" viewBox="0 0 50 50" style="enable-background:new 0 0 50 50;" xml:space="preserve">
<style type="text/css">
	.st0{display:none;}
	.st1{fill:#FFFFFF;}
</style>
<g id="guides">
</g>
<g id="builders" class="st0">
</g>
<g id="_x31_prJLN.tif">
	<g>
		<path class="st1" d="M3.3,47.3 M24.3,1.3"/>
	</g>
</g>
<path d="M49.1,28.6c-1.1-1.1-2.2-2.2-3.4-3.4c-1.5-1.5-2.7-1.5-4.2,0c-2,2-4.1,4.1-6.1,6.1c-0.2,0.2-0.4,0.3-0.6,0.5
	c-2.3-2-4.9-3.4-7.9-4.3c6.6-3.6,8.6-10.6,6.8-16.2C32.1,5.8,26.9,2,21,2c-5.9,0-11,3.9-12.7,9.5c-1.7,5.5,0.3,12.6,7,16.1
	c-4.5,1.4-8.2,3.9-11,7.7C1.4,39,0,43.2,0,48c14.2,0,28.3,0,42.4,0c0-2.4-0.4-4.7-1.2-6.9c-0.2-0.5-0.1-0.8,0.3-1.2
	c2.6-2.5,5.1-5.1,7.6-7.6C50.3,31.1,50.3,29.7,49.1,28.6z M40.9,36c-2.1,2.1-4.2,4.2-6.4,6.3c-0.4,0.4-0.9,0.6-1.5,0.8
	c-0.8,0.3-1.7,0.4-2.7,0.6c0.3-1.2,0.5-2.3,0.8-3.3c0-0.2,0.2-0.3,0.3-0.4c2.7-2.7,5.4-5.4,8.1-8.1c0,0,0.1-0.1,0.1-0.1
	c0.9,0.9,1.8,1.8,2.8,2.8C41.9,35,41.4,35.4,40.9,36z M44.8,31.9c-0.9-0.9-1.7-1.8-2.6-2.7c0.4-0.4,1-1,1.5-1.5
	c0.8,0.9,1.7,1.8,2.6,2.7C45.8,30.9,45.3,31.5,44.8,31.9z"/>
</svg>
