<?xml version="1.0" encoding="utf-8"?>
<!-- Generator: Adobe Illustrator 24.0.3, SVG Export Plug-In . SVG Version: 6.00 Build 0)  -->
<svg version="1.1" xmlns="http://www.w3.org/2000/svg" xmlns:xlink="http://www.w3.org/1999/xlink" x="0px" y="0px" width="50px"
	 height="50px" viewBox="0 0 50 50" style="enable-background:new 0 0 50 50;" xml:space="preserve">
<style type="text/css">
	.st0{display:none;}
	.st1{display:inline;}
	.st2{fill:#FFFFFF;}
	.st3{fill:none;}
</style>
<g id="guides">
</g>
<g id="Layer_1">
	<path d="M15.6,37l-1.4,1.4c-0.2,0.2-0.4,0.3-0.6,0.3c-0.2,0-0.4-0.1-0.6-0.3L0.3,25.6C0.1,25.4,0,25.2,0,25c0-0.2,0.1-0.4,0.3-0.6
		L13,11.6c0.2-0.2,0.4-0.3,0.6-0.3s0.4,0.1,0.6,0.3l1.4,1.4c0.2,0.2,0.3,0.4,0.3,0.6s-0.1,0.4-0.3,0.6L4.9,25l10.7,10.7
		c0.2,0.2,0.3,0.4,0.3,0.6S15.8,36.8,15.6,37z M31.8,7.8L21.6,43.1c-0.1,0.2-0.2,0.4-0.4,0.5c-0.2,0.1-0.4,0.1-0.6,0.1l-1.7-0.5
		c-0.2-0.1-0.4-0.2-0.5-0.4c-0.1-0.2-0.1-0.4-0.1-0.7L28.4,6.9c0.1-0.2,0.2-0.4,0.4-0.5s0.4-0.1,0.6-0.1l1.7,0.5
		c0.2,0.1,0.4,0.2,0.5,0.4C31.8,7.4,31.9,7.6,31.8,7.8z M49.7,25.6L37,38.4c-0.2,0.2-0.4,0.3-0.6,0.3c-0.2,0-0.4-0.1-0.6-0.3
		L34.4,37c-0.2-0.2-0.3-0.4-0.3-0.6s0.1-0.4,0.3-0.6L45.1,25L34.4,14.3c-0.2-0.2-0.3-0.4-0.3-0.6s0.1-0.4,0.3-0.6l1.4-1.4
		c0.2-0.2,0.4-0.3,0.6-0.3c0.2,0,0.4,0.1,0.6,0.3l12.7,12.7c0.2,0.2,0.3,0.4,0.3,0.6S49.9,25.4,49.7,25.6z"/>
</g>
<g id="builders" class="st0">
</g>
<g id="bounds">
	<rect class="st3" width="50" height="50"/>
</g>
</svg>
