<?xml version="1.0" encoding="utf-8"?>
<!-- Generator: Adobe Illustrator 24.0.3, SVG Export Plug-In . SVG Version: 6.00 Build 0)  -->
<svg version="1.1" xmlns="http://www.w3.org/2000/svg" xmlns:xlink="http://www.w3.org/1999/xlink" x="0px" y="0px" width="50px"
	 height="50px" viewBox="0 0 50 50" style="enable-background:new 0 0 50 50;" xml:space="preserve">
<style type="text/css">
	.st0{display:none;}
	.st1{display:inline;}
	.st2{fill:#FFFFFF;}
	.st3{fill:none;}
</style>
<g id="guides">
</g>
<g id="Layer_1">
	<g id="tNRe83_1_">
		<g>
			<g>
				<path d="M47.8,36.7c-0.9-0.8-1.9-1.5-2.8-2.2c-4.3-3.3-8.5-6.6-12.8-9.9c-0.3-0.2-0.3-0.4-0.2-0.7c0.5-1.2,0.6-2.4,0.7-3.9
					c0-0.4-0.1-0.9-0.2-1.5c-0.8-5.6-6.4-9.6-12-8.7c-0.4,0.1-0.7,0.2-0.8,0.6c-0.1,0.4,0.1,0.7,0.4,1c1.5,1.5,3.1,3,4.6,4.5
					c1,1,1.1,2.1,0.1,3.2c-1.3,1.3-2.6,2.6-3.8,3.9c-0.8,0.9-2.1,0.9-3,0c-1.6-1.5-3.2-3.1-4.7-4.6c-0.3-0.3-0.6-0.4-0.9-0.2
					c-0.3,0.1-0.5,0.4-0.5,0.7c-0.3,2.5,0.2,4.9,1.6,7.1c2.8,4.3,8,5.9,12.8,4c0.4-0.1,0.6-0.1,0.8,0.2c3.3,3.9,6.6,7.7,9.9,11.6
					c1,1.1,1.9,2.3,2.9,3.4c1.6,1.8,3.6,2.4,5.9,1.8c2.3-0.6,3.7-2.1,4.2-4.4C50.3,40.1,49.6,38.2,47.8,36.7z M44.5,43.8
					c-1.2,0-2.3-1-2.3-2.3c0-1.2,1.1-2.3,2.3-2.3c1.2,0,2.2,1,2.2,2.3C46.7,42.8,45.7,43.8,44.5,43.8z"/>
			</g>
			<path d="M11.3,28.2C11.3,28.2,11.3,28.3,11.3,28.2C11.3,28.3,11.3,28.2,11.3,28.2z"/>
			<path d="M2.3,16.4C2.3,16.4,2.3,16.4,2.3,16.4C2.3,16.4,2.3,16.4,2.3,16.4z"/>
			<polygon points="27.8,39.8 27.8,39.8 27.8,39.8 			"/>
		</g>
	</g>
</g>
<g id="builders" class="st0">
</g>
<g id="bounds">
	<rect class="st3" width="50" height="50"/>
	<path d="M36.2,25.3c-0.3-0.3-0.6-0.5-0.9-0.7c-0.3-0.2-0.4-0.5-0.3-0.8c0.1-0.5,0.2-1,0.2-1.5c0.2-1.3,0.2-2.6-0.1-3.9
		c-0.1-0.7-0.2-1.4-0.4-2.1c-0.1-0.4-0.3-0.8-0.5-1.2c-0.4-0.8-0.7-1.7-1.3-2.3c-0.8-0.9-1.6-1.8-2.5-2.6c-0.7-0.7-1.7-1-2.4-1.5
		c-0.5-0.4-1.2-0.4-1.8-0.7c-0.8-0.3-1.6-0.4-2.5-0.5c-1.5-0.2-2.9-0.1-4.3,0.2c-0.8,0.2-1.5,0.3-2.2,0.6c-0.9,0.4-1.7,1-2.5,1.5
		C13,11,11.8,12.4,10.8,14c-1.4,2.3-1.9,4.9-1.7,7.6c0,0.8,0.2,1.6,0.4,2.4c0.2,0.7,0.5,1.4,0.8,2c0.1,0.3,0.2,0.5,0.3,0.8
		c0.2,0.4,0.5,0.7,0.7,1.1c0.1,0.1,0,0.2,0.1,0.4c0.3,0.3,0.6,0.6,0.9,0.9c0.6,0.5,1.2,1,1.7,1.5c0.9,0.8,2,1.4,3,1.9
		c0.2,0.1,0.4,0.3,0.6,0.4c0.6,0.2,1.2,0.3,1.9,0.5c2.2,0.5,4.3,0.4,6.4-0.2c0.2-0.1,0.6,0,0.8,0.1c0.4,0.3,0.9,0.6,1.1,1
		c0.5,0.9,1.4,1.5,2,2.4c0.3,0.5,0.7,0.9,1,1.4c0.3,0.4,0.7,0.8,1.1,1.2c0.2,0.2,0.2,0.6-0.1,0.8c-0.8,0.4-1.6,0.9-2.5,0.9
		c-0.3,0-0.6-0.1-0.7-0.4c-0.1-0.1-0.2-0.2-0.3-0.3c-0.1-0.2-0.2-0.4-0.4-0.6c-0.4-0.3-0.8-0.7-1.2-1c-0.1-0.1-0.2-0.2-0.3-0.2
		c-1.2-0.6-2.5-0.9-3.9-0.7c-0.8,0.1-1.7,0.3-2.3,0.9c-0.3,0.2-0.7,0.3-1,0.6c-0.4,0.4-0.7,0.9-1,1.5c-0.2,0.4-0.6,0.6-1,0.6
		c-0.7,0-1.3,0-1.9-0.4c-0.5-0.3-1.1-0.4-1.7-0.6c-0.7-0.3-1.1-0.8-1-1.6c0.1-0.8,0.1-1.6,0.1-2.4c0-0.2-0.2-0.5-0.3-0.7
		c-0.3-1.1-1-1.9-1.8-2.6c-0.5-0.3-0.9-0.8-1.5-1c-0.8-0.2-1.6-0.3-2.5-0.4c-0.6,0-1.2,0.1-1.8,0.2C4,32,3.6,31.7,3.3,31.2
		C3.2,31,3.1,30.9,3,30.8C2.7,30,2.3,29.2,2,28.4c-0.3-0.8-0.1-1.3,0.5-1.8c0.7-0.6,1.6-1.1,2-2c0.8-1.8,0.9-3.6,0.1-5.5
		c-0.4-0.9-1.1-1.5-1.8-2.2c-0.2-0.2-0.4-0.4-0.6-0.6l0,0c-1-0.3-1.3-0.7-0.9-1.7c0.2-0.6,0.4-1.2,0.6-1.8c0.2-0.7,0.6-1.2,1.1-1.7
		C3.1,11,3.2,11,3.4,10.9c0.3,0,0.5,0,0.8,0c1,0.3,2.1,0.1,3.1-0.2c0.9-0.3,1.6-0.8,2.3-1.5c0.1-0.1,0.5-0.6,0.6-0.8
		c0.5-0.7,0.8-1.4,0.9-2.2c0.2-0.9,0.2-1.8-0.1-2.7c-0.5-1.5,0.2-1.8,1.3-2.3c0.5-0.2,1-0.5,1.5-0.7c0.3-0.1,0.6-0.3,1-0.4
		c0.5-0.1,0.9,0.3,1.3,0.6c0.5,0.5,0.9,1,1.5,1.4c0.5,0.4,1,0.9,1.6,1.1c1.5,0.4,2.9,0.5,4.4-0.1c0.3-0.1,0.6-0.2,0.9-0.4
		c0.9-0.5,1.3-1.3,1.9-2c0.3-0.4,0.7-0.8,1.1-1c0.3-0.1,0.8,0,1.2,0.1c1.2,0.3,2.4,0.7,3.3,1.6c0.2,0.2,0.2,0.6,0.1,0.8
		c-0.3,1.3-0.2,2.5,0.3,3.7c0.2,0.6,0.7,1.1,1.1,1.6c0.1,0.1,0.2,0.2,0.2,0.3c0.1,0.2,0.2,0.4,0.5,0.4c0.1,0,0.2,0.1,0.3,0.2
		c0.6,0.5,1.3,0.8,2.1,0.9c0.5,0.1,1,0.1,1.5,0.1c0.7,0.1,1.2-0.1,1.8-0.3c0.4-0.2,1.1,0.1,1.3,0.6c0.3,0.6,0.6,1.3,0.9,2
		c0.2,0.4,0.3,0.7,0.5,1.1c0.3,0.6,0.2,1.1-0.3,1.5c-0.7,0.6-1.5,1.2-2,2c-0.4,0.6-0.7,1.4-0.8,2.1c-0.1,0.9,0,1.8,0,2.7
		c0,0.2,0.2,0.5,0.3,0.7l0.5,1c0.4,0.5,0.7,0.9,1.1,1.4c0.1,0.1,0.3,0.2,0.4,0.2c0.8,0.2,1.5,1.1,1.4,1.7c-0.1,0.5-0.3,1-0.5,1.6
		c0,0.1-0.1,0.3-0.2,0.4c-0.1,0.3-0.2,0.8-0.6,0.9c-0.5,0.1-0.8-0.2-1.1-0.5c-0.1-0.1-0.3-0.3-0.4-0.4c-0.4-0.4-0.9-0.7-1.3-1.1
		c-0.2-0.1-0.3-0.2-0.5-0.3c-0.1,0-0.2-0.1-0.3-0.1c-0.4-0.3-0.9-0.7-1.3-1L36.2,25.3z"/>
</g>
</svg>
